…
Return Correlation :0.5666621302109638
Closing Price Correlation :0.9323325661709652

Regression Model

Since the correlation between the closing price of ethereum and the closing price of ChainLink is so high, let's run a regression model and see what happens.

First split data

combined_data=DataFrame(eth=eth_df.Close,lnk=lnk_df.Close)
train, test = Lathe.preprocess.TrainTestSplit(combined_data,.70)

(43×2 DataFrame
 Row │ eth       lnk
     │ Float64   Float64
─────┼───────────────────
   1 │  642.869  13.4671
   2 │  654.812  13.5112
   3 │  659.298  13.4922
   4 │  638.291  13.0701
   5 │  609.818  12.342
   6 │  634.854  12.7939
   7 │  583.715  10.8313
   8 │  635.836  10.9649
  ⋮  │    ⋮         ⋮
  37 │ 1594.76   24.499
  38 │ 1718.65   26.3633
  39 │ 1746.62   25.4561
  40 │ 1768.04   27.5942
  41 │ 1744.24   26.8596
  42 │ 1783.8    27.8742
  43 │ 1843.53   30.6407
          28 rows omitted, 15×2 DataFrame
…
